<?xml version="1.0" encoding="UTF-8" standalone="no"?>
<!-- Created with Inkscape (http://www.inkscape.org/) -->

<svg
   xmlns:dc="http://purl.org/dc/elements/1.1/"
   xmlns:cc="http://creativecommons.org/ns#"
   xmlns:rdf="http://www.w3.org/1999/02/22-rdf-syntax-ns#"
   xmlns:svg="http://www.w3.org/2000/svg"
   xmlns="http://www.w3.org/2000/svg"
   xmlns:xlink="http://www.w3.org/1999/xlink"
   xmlns:sodipodi="http://sodipodi.sourceforge.net/DTD/sodipodi-0.dtd"
   xmlns:inkscape="http://www.inkscape.org/namespaces/inkscape"
   width="35.277779mm"
   height="35.277779mm"
   viewBox="0 0 125 125"
   id="svg2"
   version="1.1"
   inkscape:version="0.91 r13725"
   sodipodi:docname="omnem_grabidus_logo.svg"
   inkscape:export-filename="/home/alejanjim/icon-48.png"
   inkscape:export-xdpi="34.560001"
   inkscape:export-ydpi="34.560001">
  <defs
     id="defs4">
    <linearGradient
       inkscape:collect="always"
       id="linearGradient4234">
      <stop
         style="stop-color:#ffa62a;stop-opacity:1;"
         offset="0"
         id="stop4236" />
      <stop
         style="stop-color:#ffe92a;stop-opacity:1"
         offset="1"
         id="stop4238" />
    </linearGradient>
    <inkscape:perspective
       sodipodi:type="inkscape:persp3d"
       inkscape:vp_x="0 : 526.18109 : 1"
       inkscape:vp_y="0 : 1000 : 0"
       inkscape:vp_z="744.09448 : 526.18111 : 1"
       inkscape:persp3d-origin="372.04723 : 350.7874 : 1"
       id="perspective3352" />
    <linearGradient
       inkscape:collect="always"
       xlink:href="#linearGradient4234"
       id="linearGradient4240"
       x1="260.61935"
       y1="219.99651"
       x2="296.98483"
       y2="163.42796"
       gradientUnits="userSpaceOnUse" />
  </defs>
  <sodipodi:namedview
     id="base"
     pagecolor="#ffffff"
     bordercolor="#666666"
     borderopacity="1.0"
     inkscape:pageopacity="0.0"
     inkscape:pageshadow="2"
     inkscape:zoom="0.49497475"
     inkscape:cx="-160.10205"
     inkscape:cy="-258.57409"
     inkscape:document-units="px"
     inkscape:current-layer="layer1"
     showgrid="false"
     fit-margin-top="0"
     fit-margin-left="0"
     fit-margin-right="0"
     fit-margin-bottom="0"
     inkscape:window-width="1366"
     inkscape:window-height="744"
     inkscape:window-x="0"
     inkscape:window-y="24"
     inkscape:window-maximized="1" />
  <metadata
     id="metadata7">
    <rdf:RDF>
      <cc:Work
         rdf:about="">
        <dc:format>image/svg+xml</dc:format>
        <dc:type
           rdf:resource="http://purl.org/dc/dcmitype/StillImage" />
        <dc:title></dc:title>
      </cc:Work>
    </rdf:RDF>
  </metadata>
  <g
     inkscape:label="Capa 1"
     inkscape:groupmode="layer"
     id="layer1"
     transform="translate(-221.23975,-173.60561)">
    <ellipse
       style="fill:#241c1c"
       id="path4188"
       cx="283.02579"
       cy="260.4895"
       rx="49.985733"
       ry="38.116119" />
    <ellipse
       style="fill:#918a6f"
       id="path4200"
       cx="283.02582"
       cy="250.64047"
       rx="33.626781"
       ry="32.097786" />
    <path
       sodipodi:type="star"
       style="fill:url(#linearGradient4240);fill-opacity:1"
       id="path4224"
       sodipodi:sides="3"
       sodipodi:cx="290.92392"
       sodipodi:cy="215.9559"
       sodipodi:r1="79.693291"
       sodipodi:r2="58.191971"
       sodipodi:arg1="0.53172407"
       sodipodi:arg2="1.6458664"
       inkscape:flatsided="false"
       inkscape:rounded="0.1"
       inkscape:randomized="0"
       d="m 359.61429,256.362 c -4.23536,6.20782 -65.53998,17.68275 -73.05474,17.62198 -6.76209,-0.0547 -62.04145,-12.64994 -64.97353,-18.74352 -3.25845,-6.77184 17.45629,-65.60067 21.2663,-72.07825 3.4284,-5.8288 41.97589,-47.4045 48.71912,-46.89697 7.49381,0.56402 48.0837,47.91793 51.78846,54.45628 3.33368,5.88348 20.06554,60.05444 16.25439,65.64048 z"
       inkscape:transform-center-x="0.28306072"
       inkscape:transform-center-y="-13.421834"
       transform="matrix(0.89969736,0,0,0.73009685,22.190926,74.122173)" />
  </g>
</svg>
